<svg width="36" height="36" viewBox="0 0 36 36" fill="none" xmlns="http://www.w3.org/2000/svg">
<rect width="35.9997" height="35.9997" transform="translate(0 0.187744)" fill="#004BA1"/>
<path d="M35.9997 18.1876C35.9997 8.24552 27.9419 0.187744 17.9998 0.187744C8.05778 0.187744 0 8.24552 0 18.1876C0 27.1735 6.58119 34.6195 15.1874 35.9695V23.3907H10.6171V18.1876H15.1874V14.222C15.1874 9.71146 17.8733 7.21893 21.9865 7.21893C23.9552 7.21893 26.0154 7.57049 26.0154 7.57049V12.0001H23.7443C21.5084 12.0001 20.8123 13.3888 20.8123 14.8126V18.1876H25.8044L25.0064 23.3907H20.8123V35.9695C29.4185 34.6195 35.9997 27.1735 35.9997 18.1876Z" fill="#004BA1"/>
<path d="M25.0063 23.3905L25.8043 18.1874H20.8122V14.8124C20.8122 13.3886 21.5083 12 23.7442 12H26.0153V7.57031C26.0153 7.57031 23.9551 7.21875 21.9864 7.21875C17.8732 7.21875 15.1873 9.71128 15.1873 14.2218V18.1874H10.6169V23.3905H15.1873V35.9693C16.1048 36.1134 17.0435 36.1872 17.9997 36.1872C18.956 36.1872 19.8947 36.1134 20.8122 35.9693V23.3905H25.0063Z" fill="white"/>
</svg>
